…
-   Separate tickets and client databases

``` r
tickets_db <- fake_ticket_client(vol = 100, split = TRUE)
tickets_db
#> $clients
#> # A tibble: 200 × 14
#>    num_client first   last   job      age region  id_dpt departement cb_provider
#>  * <chr>      <chr>   <chr>  <chr>  <dbl> <chr>   <chr>  <chr>       <chr>      
#>  1 1          Solomon Heaney Civil…    53 Rhône-… 73     Savoie      Diners Clu…
#>  2 2          Karma   Willi… Scien…    81 Centre  41     Loir-et-Ch… VISA 13 di…
#>  3 3          Press   Kulas  Anima…    NA <NA>    01     Ain         <NA>       
#>  4 4          Laken   McDer… <NA>      NA Centre  18     Cher        <NA>       
#>  5 5          Sydnie  Jasko… Horti…    30 Basse-… 50     <NA>        <NA>       
#>  6 6          Clayton Runol… Commi…    NA Bretag… 56     Morbihan    Diners Clu…
#>  7 7          Roberta Purdy… Finan…    60 <NA>    69     Rhône       <NA>       
#>  8 8          Dr.     Ronal… Astro…    30 Langue… 48     Lozère      <NA>       
#>  9 9          Miss    Alond… Occup…    18 Franch… 25     Doubs       Diners Clu…
#> 10 10         Vernice Ondri… Clini…    19 Bourgo… 58     Nièvre      <NA>       
#> # … with 190 more rows, and 5 more variables: name <chr>, entry_date <dttm>,
#> #   fidelity_points <dbl>, priority_encoded <dbl>, priority <fct>
#> 
#> $tickets
#> # A tibble: 100 × 10
#>    ref            num_client  year month   day timestamp  supported type   state
#>    <chr>          <chr>      <dbl> <dbl> <int> <date>     <chr>     <chr>  <fct>
#>  1 DOSS-GFEL-0028 1           2015    11    27 2015-11-27 Non       Insta… Term…
#>  2 DOSS-UWYV-0016 22          2019     9    18 2019-09-18 Non       Insta… Atte…
#>  3 DOSS-DKFC-0073 9           2019    10    23 2019-10-23 Non       Insta… Term…
#>  4 DOSS-SAYJ-0047 8           2019    11     7 2019-11-07 Non       Box    Atte…
#>  5 DOSS-GSMZ-0080 30          2019    11    24 2019-11-24 Oui       Insta… Inte…
#>  6 DOSS-UIOZ-0085 10          2019    12     6 2019-12-06 Oui       Insta… Atte…
#>  7 DOSS-DSMI-0065 37          2020     1     3 2020-01-03 Non       Ligne  Atte…
#>  8 DOSS-JOYV-0029 37          2020     2    23 2020-02-23 Non       Box    Atte…
#>  9 DOSS-WPSG-0013 24          2020     3     1 2020-03-01 Non       <NA>   En c…
#> 10 DOSS-NHFG-0036 12          2020     3    18 2020-03-18 Non       Insta… Atte…
#> # … with 90 more rows, and 1 more variable: source_call <fct>
…
### Fake website visits

``` r
fake_visits(from = "2017-01-01", to = "2017-01-31")
#> # A tibble: 31 × 8
#>    timestamp   year month   day  home about  blog contact
#>  * <date>     <dbl> <dbl> <int> <int> <int> <int>   <int>
#>  1 2017-01-01  2017     1     1   369   220   404     210
#>  2 2017-01-02  2017     1     2   159   250   414     490
#>  3 2017-01-03  2017     1     3   436   170   498     456
#>  4 2017-01-04  2017     1     4    NA   258   526     392
#>  5 2017-01-05  2017     1     5   362    NA   407     291
#>  6 2017-01-06  2017     1     6   245   145   576      90
#>  7 2017-01-07  2017     1     7    NA    NA   484     167
#>  8 2017-01-08  2017     1     8   461   103   441      NA
#>  9 2017-01-09  2017     1     9   337   113   673     379
#> 10 2017-01-10  2017     1    10    NA   169   308     139
#> # … with 21 more rows
```

### Fake questionnaire on mean of transport / goal

-   All answers

``` r
fake_sondage_answers(n = 10)
#> # A tibble: 30 × 12
#>    id_individu   age sexe  region           id_departement nom_departement
#>    <chr>       <int> <chr> <chr>            <chr>          <chr>          
#>  1 ID-NYDZ-010    NA <NA>  Corse            2A             Corse-du-Sud   
#>  2 ID-NYDZ-010    NA <NA>  Corse            2A             Corse-du-Sud   
#>  3 ID-NYDZ-010    NA <NA>  Corse            2A             Corse-du-Sud   
#>  4 ID-PWLB-009    71 F     Basse-Normandie  14             Calvados       
#>  5 ID-PWLB-009    71 F     Basse-Normandie  14             Calvados       
#>  6 ID-PWLB-009    71 F     Basse-Normandie  14             Calvados       
#>  7 ID-NMQG-001    42 M     Poitou-Charentes 86             <NA>           
#>  8 ID-NMQG-001    42 M     Poitou-Charentes 86             <NA>           
#>  9 ID-NMQG-001    42 M     Poitou-Charentes 86             <NA>           
#> 10 ID-RJXN-002    71 O     Auvergne         15             Cantal         
#> # … with 20 more rows, and 6 more variables: question_date <dttm>, year <dbl>,
#> #   type <chr>, distance_km <dbl>, transport <fct>,
#> #   temps_trajet_en_heures <dbl>
```
…
#>    <chr>       <int> <chr> <chr>                <chr>          <chr>          
#>  1 ID-NYDZ-010    NA <NA>  Pays de la Loire     49             Maine-et-Loire 
#>  2 ID-PWLB-009    71 F     Basse-Normandie      14             Calvados       
#>  3 ID-NMQG-001    42 M     Bourgogne            58             Nièvre         
#>  4 ID-RJXN-002    71 O     Centre               41             Loir-et-Cher   
#>  5 ID-MROK-007    41 M     Languedoc-Roussillon 48             Lozère         
#>  6 ID-VMKS-004    33 O     Poitou-Charentes     86             Vienne         
#>  7 ID-XEMZ-003    81 O     <NA>                 77             Seine-et-Marne 
#>  8 ID-EUDQ-005    44 M     Champagne-Ardenne    51             <NA>           
#>  9 ID-DCIZ-008    92 O     Picardie             60             Oise           
#> 10 ID-KPUS-006    57 O     Picardie             60             Oise           
#> # … with 2 more variables: question_date <dttm>, year <dbl>
#> 
#> $answers
#> # A tibble: 30 × 5
#>    id_individu type      distance_km transport temps_trajet_en_heures
#>    <chr>       <chr>           <dbl> <fct>                      <dbl>
#>  1 ID-NYDZ-010 travail         12.2  voiture                     0.15
#>  2 ID-NYDZ-010 commerces        9.61 bus                         1.01
#>  3 ID-NYDZ-010 loisirs        549.   avion                       0.27
#>  4 ID-PWLB-009 travail         11.9  voiture                     0.14
#>  5 ID-PWLB-009 commerces       27.4  voiture                     0.34
#>  6 ID-PWLB-009 loisirs        210.   train                       0.42
#>  7 ID-NMQG-001 travail          2.38 velo                        0.43
#>  8 ID-NMQG-001 commerces       14.9  voiture                     0.18
#>  9 ID-NMQG-001 loisirs        446.   train                       0.89
#> 10 ID-RJXN-002 travail          6.18 mobylette                   0.75
#> # … with 20 more rows
```

### fake transport use

``` r
answers <- fake_sondage_answers(n = 30)
answers
#> # A tibble: 90 × 12
#>    id_individu   age sexe  region      id_departement nom_departement
#>    <chr>       <int> <chr> <chr>       <chr>          <chr>          
#>  1 ID-MROK-007    NA M     <NA>        16             <NA>           
#>  2 ID-MROK-007    NA M     <NA>        16             <NA>           
#>  3 ID-MROK-007    NA M     <NA>        16             <NA>           
#>  4 ID-NYDZ-010    49 M     Rhône-Alpes 07             Ardèche        
#>  5 ID-NYDZ-010    49 M     Rhône-Alpes 07             Ardèche        
#>  6 ID-NYDZ-010    49 M     Rhône-Alpes 07             Ardèche        
#>  7 ID-HXOG-015    50 M     <NA>        39             Jura           
#>  8 ID-HXOG-015    50 M     <NA>        39             Jura           
#>  9 ID-HXOG-015    50 M     <NA>        39             Jura           
#> 10 ID-MZNB-024    70 F     <NA>        51             Marne          
#> # … with 80 more rows, and 6 more variables: question_date <dttm>, year <dbl>,
#> #   type <chr>, distance_km <dbl>, transport <fct>,
#> #   temps_trajet_en_heures <dbl>
…
