fake client service database • fakir
…
Separate tickets and client databases

tickets_db <- fake_ticket_client(vol = 100, split = TRUE)
#> old-style crs object detected; please recreate object with a recent sf::st_crs()
tickets_db
#> $clients
#> # A tibble: 200 × 14
#>    num_client first   last     job     age region id_dpt departement cb_provider
#>  * <chr>      <chr>   <chr>    <chr> <dbl> <chr>  <chr>  <chr>       <chr>      
#>  1 1          Solomon Heaney   Civi…    53 Prove… 83     Var         Diners Clu…
#>  2 2          Karma   William… Scie…    81 Rhône… 07     Ardèche     VISA 13 di…
#>  3 3          Press   Kulas    Anim…    NA Langu… 30     Gard        NA         
#>  4 4          Laken   McDermo… NA       NA Prove… 05     Hautes-Alp… NA         
#>  5 5          Sydnie  Jaskols… Hort…    30 Centre 41     NA          NA         
#>  6 6          Clayton Runolfs… Comm…    NA Basse… 14     Calvados    Diners Clu…
#>  7 7          Roberta Purdy-W… Fina…    60 Bourg… 21     Côte-d'Or   NA         
#>  8 8          Dr.     RonaldM… Astr…    30 Centre 37     Indre-et-L… NA         
#>  9 9          Miss    Alondra… Occu…    18 Rhône… 74     Haute-Savo… Diners Clu…
#> 10 10         Vernice Ondrick… Clin…    19 Prove… 05     Hautes-Alp… NA         
#> # … with 190 more rows, and 5 more variables: name <chr>, entry_date <dttm>,
#> #   fidelity_points <dbl>, priority_encoded <dbl>, priority <fct>
#> 
#> $tickets
#> # A tibble: 100 × 10
#>    ref            num_client  year month   day timestamp  supported type   state
#>    <chr>          <chr>      <dbl> <dbl> <int> <date>     <chr>     <chr>  <fct>
#>  1 DOSS-GFEL-0028 1           2015    11    27 2015-11-27 Non       Insta… Term…
#>  2 DOSS-UWYV-0016 22          2019     9    18 2019-09-18 Non       Insta… Atte…
#>  3 DOSS-DKFC-0073 9           2019    10    23 2019-10-23 Non       Insta… Term…
#>  4 DOSS-SAYJ-0047 8           2019    11     7 2019-11-07 Non       Box    Atte…
#>  5 DOSS-GSMZ-0080 30          2019    11    24 2019-11-24 Oui       Insta… Inte…
#>  6 DOSS-UIOZ-0085 10          2019    12     6 2019-12-06 Oui       Insta… Atte…
#>  7 DOSS-DSMI-0065 37          2020     1     3 2020-01-03 Non       Ligne  Atte…
#>  8 DOSS-JOYV-0029 37          2020     2    23 2020-02-23 Non       Box    Atte…
#>  9 DOSS-WPSG-0013 24          2020     3     1 2020-03-01 Non       NA     En c…
#> 10 DOSS-NHFG-0036 12          2020     3    18 2020-03-18 Non       Insta… Atte…
#> # … with 90 more rows, and 1 more variable: source_call <fct>
…
